{
  "users": [
    {
      "name": "roy_edited",
      "business_name": "india_edit",
      "gst_number": "9148913",
      "id": 1
    },
    {
      "id": 2,
      "name": "sam",
      "business_name": "wales",
      "gst_number": "9148913"
    },
    {
      "id": 3,
      "name": "th",
      "business_name": "india",
      "gst_number": "9148913"
    },
    {
      "id": 4,
      "name": "tam",
      "business_name": "wales",
      "gst_number": "9148913"
    },
    {
      "id": 5,
      "name": "ka",
      "business_name": "india",
      "gst_number": "9148913"
    },
    {
      "id": 6,
      "name": "ku",
      "business_name": "wales",
      "gst_number": "9148913"
    },
    {
      "id": 7,
      "name": "zet",
      "business_name": "india",
      "gst_number": "9148913"
    },
    {
      "id": 8,
      "name": "my",
      "business_name": "wales",
      "gst_number": "9148913"
    },
    {
      "id": 9,
      "name": "sin",
      "business_name": "india",
      "gst_number": "9148913"
    },
    {
      "id": 10,
      "name": "nhan",
      "business_name": "wales",
      "gst_number": "9148913"
    },
    {
      "id": 33,
      "name": "nhanaaaaaaaa",
      "business_name": "wales",
      "gst_number": "9148913"
    },
    {
      "id": 35,
      "name": "nhanaaaaaaaa",
      "business_name": "wales",
      "gst_number": "9148913"
    },
    {
      "id": 40,
      "name": "nhanaaaaaaaa",
      "business_name": "wales",
      "gst_number": "9148913"
    }
  ]
}